Title of ecalc9 run                                                                                                                        
                2  
                0.150 
                0.350
                0.030
                0.015 
                0.20
                325
                4.0 
                .False.
                .TRUE.