PostMerge Stage ALL

! Version of May 05, 2013
! Takes the beam from exit of bunch-merger
! Note: Stages 1-4: LH
! Note: Stgaes 5-8: Lithium Hydride
! Note: This version has NO Be cavity windows

! STAGE 1

&SUB  pref1      0.203
&SUB  driftLEN1    0.14620000000000005
&SUB  labs1      0.48
&SUB  alpw1    120
&SUB  uw1    0.114   
&SUB  W1    0.27819999999999995
&SUB  rap1    0.27819999999999995
&SUB  abswLEN1    100E-6
&SUB  rfPH1    35
&SUB  rfGRAD1    50
&SUB  rfFREQ1    325
&SUB  Ncells1    20



&cont npart=3000 bgen=F nsections=1 varstep=.false. nprnt=-3  ! If bgen=F read for003.dat file. EDITED FOR 1000
ntuple=.false. rtuple=.false. rtuplen=1 output1=.true. phasemodel=3
fsav=T fsavset=F izfile=6054  bzfldprd=0 /

&bmt nbeamtyp=1 / 
1 2 1. 1  
0.000002 -0.000360 -0.002267 -0.000043 -0.000174 0.224000  ! mean: x y z px py pz
0.041668 0.039513 0.079917 0.014644 0.013970 0.014059      ! sigmas: x y z px py pz
0                                                          ! If 0 No correlations
2  0.250  0.2  0.00 

&ints ldecay=T  ldray=T  ldedx=.true. lstrag=.true. lscatter=.true.
  delev=2 straglev=4 scatlev=6  /
 
&nhs nhist=0 / 
&nsc nscat=0 /  
&nzh nzhist=0 / 
&nrh nrhist=0  /

&nem nemit=1  /                                                                
1 
 
! Calculates covariance matrices at specified planes
&ncv ncovar=1 /                                                                
1 


SECTION

!################################ STAGE 1 ################################

REFP
2  &pref1  0. 0. 3

GRID
1
G43D
0. 28. 0.  0. 1.0   0. 0. 0. 0. 0.    0. 0. 0. 0. 0.

DVAR
1  -0.00700 2

DVAR
2  -0.02375 2

BEGS

CELL      
&Ncells1     
.FALSE.
STUS
2. 0. 1. 0. 0.    0. 0. 0. 0. 0.     0. 0. 0. 0. 0.  

      
SREGION 	! HALF-WEDGE
&labs1  1  2e-3                                      
1  0.  &rap1                                        
NONE
0.0  0.0  0.0  0.0  0.0    0.   0. 0. 0. 0.  0. 0. 0. 0. 0.
LH
WEDGE
&alpw1  &uw1  0.00  0  &W1   &W1  0. 0. 0. 0.    


SREGION ! ABS Window                 
&abswLEN1   1   40e-6                  
1 0. &rap1                  
NONE                    
0. 0. 0. 0. 0. 0. 0. 0. 0. 0. 0. 0. 0. 0. 0.      
AL                    
CBLOCK                    
0. 0. 0. 0. 0. 0. 0. 0. 0. 0. 

SREGION         !  DRIFT
&driftLEN1   1   2e-3
1 0     &rap1
NONE
  0  0  0  0  0   0  0  0  0  0    0  0  0  0  0 
VAC
CBLOCK
  0  0  0  0  0    0  0  0  0  0

SREGION         !  entrance RF window    
250e-6   1   25e-6  
1 0     &rap1
NONE
  0  0  0  0  0   0  0  0  0  0    0  0  0  0  0 
VAC
CBLOCK
  0  0  0  0  0    0  0  0  0  0

SREGION         ! RF 
0.25  1    2e-3
1  0.   &rap1
ACCEL      
2.  &rfFREQ1 &rfGRAD1  &rfPH1  0.   0. 0. 0. 0. 0.   0. 0. 0. 0. 0.  
VAC
NONE
   0. 0. 0. 0. 0.   0. 0. 0. 0. 0.

REPEAT
5

SREGION         !  interior RF window
100e-6   1   50e-6
1 0     &rap1
NONE
  0  0  0  0  0   0  0  0  0  0    0  0  0  0  0 
VAC
CBLOCK
  0  0  0  0  0    0  0  0  0  0

SREGION         ! RF 
0.25  1    2e-3
1  0.   &rap1
ACCEL      
2.  &rfFREQ1 &rfGRAD1  &rfPH1  0.   0. 0. 0. 0. 0.   0. 0. 0. 0. 0.  
VAC
NONE
   0. 0. 0. 0. 0.   0. 0. 0. 0. 0.

ENDR

SREGION         !  exit RF window    
250e-6   1   25e-6   
1 0     &rap1
NONE
  0  0  0  0  0   0  0  0  0  0    0  0  0  0  0 
VAC
CBLOCK
  0  0  0  0  0    0  0  0  0  0

SREGION         !  DRIFT
&driftLEN1   1   2e-3
1 0     &rap1
NONE
  0  0  0  0  0   0  0  0  0  0    0  0  0  0  0 
VAC
CBLOCK
  0  0  0  0  0    0  0  0  0  0

SREGION ! ABS Window                 
&abswLEN1   1   40e-6                  
1 0. &rap1                   
NONE                    
0. 0. 0. 0. 0. 0. 0. 0. 0. 0. 0. 0. 0. 0. 0.      
AL                    
CBLOCK                    
0. 0. 0. 0. 0. 0. 0. 0. 0. 0.

OUTPUT

SREGION 	! HALF-WEDGE
&labs1  1  2e-3                                      
1  0.  &rap1                                        
NONE
0.0  0.0  0.0  0.0  0.0    0.   0. 0. 0. 0.  0. 0. 0. 0. 0.
LH
WEDGE
&alpw1  &uw1  &labs1  0  &W1   &W1  0. 0. 0. 0.      

ENDCELL

ENDSECTION




